{
    "fb_banner" : "3098138753772892_3098139117106189",
    "fb_interstitial" : "3098138753772892_3098139310439503",
    "fb_native" : "3098138753772892_3098139407106160",
    "admob_pub_id": "pub-8532501034568787",
    "admob_app_id": "ca-app-pub-8532501034568787~4948239969",
    "admob_banner" : "ca-app-pub-8532501034568787/1008994951",
    "admob_interstitial" :"ca-app-pub-8532501034568787/7382831614",
    "admob_native" : "ca-app-pub-8532501034568787/3443586603",
    "admob_open" : "ca-app-pub-8532501034568787/9817423264",
    "ad_type" : "1",
    "new_pkg" : "com.talt.translate.translator.translatecamera.translatelanguage.languagetranslator.alllanguagetranslator.voicetyping.dictionary.conversationtranslator",
    "is_version" : "false",
    "load_more":true
  }
